%YAML 1.1
%TAG !u! tag:unity3d.com,2011:
--- !u!1045 &1
EditorBuildSettings:
  m_ObjectHideFlags: 0
  serializedVersion: 2
  m_Scenes:
  - enabled: 1
    path: Assets/Scenes/StartScene.unity
    guid: d450dd65ad056c543bfc3b57bbaee1e8
  - enabled: 1
    path: Assets/Scenes/Levels/Level 1.unity
    guid: 024fce5727b83694193db5e580b08d1a
  - enabled: 1
    path: Assets/Scenes/Levels/Level 2.unity
    guid: 4da48aabd407e694c8572ba4379d50d8
  - enabled: 1
    path: Assets/Scenes/Levels/Level 3.unity
    guid: 1b8d56db3c7884349be5b67e77bc95a6
  m_configObjects: {}
