%YAML 1.1
%TAG !u! tag:unity3d.com,2011:
--- !u!114 &8584599170966308951
MonoBehaviour:
  m_ObjectHideFlags: 0
  m_CorrespondingSourceObject: {fileID: 0}
  m_PrefabInstance: {fileID: 0}
  m_PrefabAsset: {fileID: 0}
  m_GameObject: {fileID: 5423539579355753591}
  m_Enabled: 1
  m_EditorHideFlags: 0
  m_Script: {fileID: 11500000, guid: 633259e9621478b44900b6c0d56672ed, type: 3}
  m_Name: 
  m_EditorClassIdentifier: 
  spawnPoint: {fileID: 8584599170994843438}
  resourse: {fileID: 4595984223791584122, guid: 1d402b17a2372444fb20f632eac68af6,
    type: 3}
  standartInteracteble: {fileID: 5684788413332061356, guid: ecce1869322a01b4e8d3b69e01e1a8e4,
    type: 3}
  scaleFactor: 0.1
  isGenerating: 1
--- !u!1 &8584599170994843439
GameObject:
  m_ObjectHideFlags: 0
  m_CorrespondingSourceObject: {fileID: 0}
  m_PrefabInstance: {fileID: 0}
  m_PrefabAsset: {fileID: 0}
  serializedVersion: 6
  m_Component:
  - component: {fileID: 8584599170994843438}
  m_Layer: 0
  m_Name: GameObject
  m_TagString: Untagged
  m_Icon: {fileID: 0}
  m_NavMeshLayer: 0
  m_StaticEditorFlags: 0
  m_IsActive: 1
--- !u!4 &8584599170994843438
Transform:
  m_ObjectHideFlags: 0
  m_CorrespondingSourceObject: {fileID: 0}
  m_PrefabInstance: {fileID: 0}
  m_PrefabAsset: {fileID: 0}
  m_GameObject: {fileID: 8584599170994843439}
  m_LocalRotation: {x: 0, y: 0, z: 0, w: 1}
  m_LocalPosition: {x: -0.02, y: 0.4, z: -0.36}
  m_LocalScale: {x: 1, y: 1, z: 1}
  m_Children: []
  m_Father: {fileID: 5423539579355590743}
  m_RootOrder: 2
  m_LocalEulerAnglesHint: {x: 0, y: 0, z: 0}
--- !u!1001 &5423539578803162742
PrefabInstance:
  m_ObjectHideFlags: 0
  serializedVersion: 2
  m_Modification:
    m_TransformParent: {fileID: 5423539579355590743}
    m_Modifications:
    - target: {fileID: 465014807154369191, guid: 1eba7ba001ba1524287a2b45b4712cf4,
        type: 3}
      propertyPath: m_Name
      value: Button
      objectReference: {fileID: 0}
    - target: {fileID: 466589840238272267, guid: 1eba7ba001ba1524287a2b45b4712cf4,
        type: 3}
      propertyPath: m_LocalPosition.x
      value: -0.821
      objectReference: {fileID: 0}
    - target: {fileID: 466589840238272267, guid: 1eba7ba001ba1524287a2b45b4712cf4,
        type: 3}
      propertyPath: m_LocalPosition.y
      value: 0.3745166
      objectReference: {fileID: 0}
    - target: {fileID: 466589840238272267, guid: 1eba7ba001ba1524287a2b45b4712cf4,
        type: 3}
      propertyPath: m_LocalPosition.z
      value: -0.04100037
      objectReference: {fileID: 0}
    - target: {fileID: 466589840238272267, guid: 1eba7ba001ba1524287a2b45b4712cf4,
        type: 3}
      propertyPath: m_LocalRotation.x
      value: 0
      objectReference: {fileID: 0}
    - target: {fileID: 466589840238272267, guid: 1eba7ba001ba1524287a2b45b4712cf4,
        type: 3}
      propertyPath: m_LocalRotation.y
      value: 0
      objectReference: {fileID: 0}
    - target: {fileID: 466589840238272267, guid: 1eba7ba001ba1524287a2b45b4712cf4,
        type: 3}
      propertyPath: m_LocalRotation.z
      value: -0.7071068
      objectReference: {fileID: 0}
    - target: {fileID: 466589840238272267, guid: 1eba7ba001ba1524287a2b45b4712cf4,
        type: 3}
      propertyPath: m_LocalRotation.w
      value: 0.7071068
      objectReference: {fileID: 0}
    - target: {fileID: 466589840238272267, guid: 1eba7ba001ba1524287a2b45b4712cf4,
        type: 3}
      propertyPath: m_RootOrder
      value: 3
      objectReference: {fileID: 0}
    - target: {fileID: 466589840238272267, guid: 1eba7ba001ba1524287a2b45b4712cf4,
        type: 3}
      propertyPath: m_LocalEulerAnglesHint.x
      value: 0
      objectReference: {fileID: 0}
    - target: {fileID: 466589840238272267, guid: 1eba7ba001ba1524287a2b45b4712cf4,
        type: 3}
      propertyPath: m_LocalEulerAnglesHint.y
      value: 0
      objectReference: {fileID: 0}
    - target: {fileID: 466589840238272267, guid: 1eba7ba001ba1524287a2b45b4712cf4,
        type: 3}
      propertyPath: m_LocalEulerAnglesHint.z
      value: -90.00001
      objectReference: {fileID: 0}
    - target: {fileID: 466589840238272267, guid: 1eba7ba001ba1524287a2b45b4712cf4,
        type: 3}
      propertyPath: m_LocalScale.x
      value: 0.2
      objectReference: {fileID: 0}
    - target: {fileID: 466589840238272267, guid: 1eba7ba001ba1524287a2b45b4712cf4,
        type: 3}
      propertyPath: m_LocalScale.y
      value: 0.11
      objectReference: {fileID: 0}
    - target: {fileID: 466589840238272267, guid: 1eba7ba001ba1524287a2b45b4712cf4,
        type: 3}
      propertyPath: m_LocalScale.z
      value: 0.2
      objectReference: {fileID: 0}
    m_RemovedComponents: []
  m_SourcePrefab: {fileID: 100100000, guid: 1eba7ba001ba1524287a2b45b4712cf4, type: 3}
--- !u!1001 &5423539579355720403
PrefabInstance:
  m_ObjectHideFlags: 0
  serializedVersion: 2
  m_Modification:
    m_TransformParent: {fileID: 0}
    m_Modifications:
    - target: {fileID: 100004, guid: 11eb9e3823c6e9f4880b5d2197d2dd16, type: 3}
      propertyPath: m_Name
      value: TimberGenerator4
      objectReference: {fileID: 0}
    - target: {fileID: 400004, guid: 11eb9e3823c6e9f4880b5d2197d2dd16, type: 3}
      propertyPath: m_LocalPosition.x
      value: 22.81
      objectReference: {fileID: 0}
    - target: {fileID: 400004, guid: 11eb9e3823c6e9f4880b5d2197d2dd16, type: 3}
      propertyPath: m_LocalPosition.y
      value: -28.31
      objectReference: {fileID: 0}
    - target: {fileID: 400004, guid: 11eb9e3823c6e9f4880b5d2197d2dd16, type: 3}
      propertyPath: m_LocalPosition.z
      value: -24.13
      objectReference: {fileID: 0}
    - target: {fileID: 400004, guid: 11eb9e3823c6e9f4880b5d2197d2dd16, type: 3}
      propertyPath: m_LocalRotation.x
      value: 0
      objectReference: {fileID: 0}
    - target: {fileID: 400004, guid: 11eb9e3823c6e9f4880b5d2197d2dd16, type: 3}
      propertyPath: m_LocalRotation.y
      value: 0
      objectReference: {fileID: 0}
    - target: {fileID: 400004, guid: 11eb9e3823c6e9f4880b5d2197d2dd16, type: 3}
      propertyPath: m_LocalRotation.z
      value: 0
      objectReference: {fileID: 0}
    - target: {fileID: 400004, guid: 11eb9e3823c6e9f4880b5d2197d2dd16, type: 3}
      propertyPath: m_LocalRotation.w
      value: 1
      objectReference: {fileID: 0}
    - target: {fileID: 400004, guid: 11eb9e3823c6e9f4880b5d2197d2dd16, type: 3}
      propertyPath: m_RootOrder
      value: 0
      objectReference: {fileID: 0}
    - target: {fileID: 400004, guid: 11eb9e3823c6e9f4880b5d2197d2dd16, type: 3}
      propertyPath: m_LocalEulerAnglesHint.x
      value: 0
      objectReference: {fileID: 0}
    - target: {fileID: 400004, guid: 11eb9e3823c6e9f4880b5d2197d2dd16, type: 3}
      propertyPath: m_LocalEulerAnglesHint.y
      value: 0
      objectReference: {fileID: 0}
    - target: {fileID: 400004, guid: 11eb9e3823c6e9f4880b5d2197d2dd16, type: 3}
      propertyPath: m_LocalEulerAnglesHint.z
      value: 0
      objectReference: {fileID: 0}
    - target: {fileID: 400004, guid: 11eb9e3823c6e9f4880b5d2197d2dd16, type: 3}
      propertyPath: m_LocalScale.x
      value: 0.8
      objectReference: {fileID: 0}
    - target: {fileID: 400004, guid: 11eb9e3823c6e9f4880b5d2197d2dd16, type: 3}
      propertyPath: m_LocalScale.y
      value: 0.8
      objectReference: {fileID: 0}
    - target: {fileID: 400004, guid: 11eb9e3823c6e9f4880b5d2197d2dd16, type: 3}
      propertyPath: m_LocalScale.z
      value: 0.8
      objectReference: {fileID: 0}
    - target: {fileID: 2300002, guid: 11eb9e3823c6e9f4880b5d2197d2dd16, type: 3}
      propertyPath: m_Materials.Array.data[0]
      value: 
      objectReference: {fileID: 2100000, guid: b21afd5b8891c8d4fbad3ad83862ce21, type: 2}
    - target: {fileID: 9500000, guid: 11eb9e3823c6e9f4880b5d2197d2dd16, type: 3}
      propertyPath: m_Controller
      value: 
      objectReference: {fileID: 9100000, guid: 2d5fd6ef21ada4247b1c4503797a56af, type: 2}
    m_RemovedComponents: []
  m_SourcePrefab: {fileID: 100100000, guid: 11eb9e3823c6e9f4880b5d2197d2dd16, type: 3}
--- !u!1 &5423539579355753591 stripped
GameObject:
  m_CorrespondingSourceObject: {fileID: 100004, guid: 11eb9e3823c6e9f4880b5d2197d2dd16,
    type: 3}
  m_PrefabInstance: {fileID: 5423539579355720403}
  m_PrefabAsset: {fileID: 0}
--- !u!4 &5423539579355590743 stripped
Transform:
  m_CorrespondingSourceObject: {fileID: 400004, guid: 11eb9e3823c6e9f4880b5d2197d2dd16,
    type: 3}
  m_PrefabInstance: {fileID: 5423539579355720403}
  m_PrefabAsset: {fileID: 0}
